CMIP6 Models (Cloud Archive) · ClimateModels.jl
…
fil=joinpath(MC.folder,string(MC.ID),"Details.toml")
meta=TOML.parsefile(fil)

Dict{String, Any} with 5 entries:
  "source_id"      => "IPSL-CM6A-LR"
  "units"          => "K"
  "long_name"      => "Near-Surface Air Temperature"
  "institution_id" => "IPSL"
  "variable_id"    => "tas"

fil=joinpath(MC.folder,string(MC.ID),"GlobalAverages.csv")
GA=CSV.read(fil,DataFrame)
show(GA,truncate=8)

1980×2 DataFrame
  Row │ time       tas
      │ DateTime…  Float64
──────┼────────────────────
    1 │ 1850-01-…  283.762
    2 │ 1850-02-…  284.126
    3 │ 1850-03-…  284.995
    4 │ 1850-04-…  285.989
    5 │ 1850-05-…  286.785
    6 │ 1850-06-…  287.528
    7 │ 1850-07-…  288.115
    8 │ 1850-08-…  288.155
  ⋮   │     ⋮         ⋮
 1974 │ 2014-06-…  288.709
 1975 │ 2014-07-…  289.282
 1976 │ 2014-08-…  289.349
 1977 │ 2014-09-…  288.688
 1978 │ 2014-10-…  287.646
 1979 │ 2014-11-…  286.56
 1980 │ 2014-12-…  285.529
          1965 rows omitted
…
